{
  "project_info": {
    "project_number": "60181009801",
    "project_id": "aop-part5-chapter02-b53e5",
    "storage_bucket": "aop-part5-chapter02-b53e5.appspot.com"
  },
  "client": [
    {
      "client_info": {
        "mobilesdk_app_id": "1:60181009801:android:6bc79d9a4eccec2b7fbd58",
        "android_client_info": {
          "package_name": "com.example.aop_part5_chapter02"
        }
      },
      "oauth_client": [
        {
          "client_id": "60181009801-i0t9tor56obtelkjha88e8bkgqvimdm0.apps.googleusercontent.com",
          "client_type": 3
        }
      ],
      "api_key": [
        {
          "current_key": "AIzaSyDw-09YjE550wkysYTLZ-QX_AKZHPJwIy8"
        }
      ],
      "services": {
        "appinvite_service": {
          "other_platform_oauth_client": [
            {
              "client_id": "60181009801-i0t9tor56obtelkjha88e8bkgqvimdm0.apps.googleusercontent.com",
              "client_type": 3
            }
          ]
        }
      }
    }
  ],
  "configuration_version": "1"
}